Exploring and cleaning data
…
87 = 49 (number of countries only in destination) + 38 (number of countries only in origin)

data_subset_us_reshaped %>%
  filter(if_any(everything(), is.na)) 

# A tibble: 178 × 22
   index_destination_to_origin region_development_group…¹ location_code_of_des…²
                         <dbl> <chr>                                       <dbl>
 1                        7046 Mauritius*                                    480
 2                        8181 Cameroon                                      120
 3                        8254 Central African Republic                      140
 4                        8383 Congo                                         178
 5                        8577 Gabon                                         266
 6                        9918 Botswana                                       72
 7                        9985 Eswatini                                      748
 8                       10048 Lesotho                                       426
 9                       10179 Namibia                                       516
10                       11327 Guinea-Bissau                                 624
# ℹ 168 more rows
# ℹ abbreviated names:
#   ¹​region_development_group_country_or_area_of_destination_destination_to_origin,
#   ²​location_code_of_destination
# ℹ 19 more variables:
#   region_development_group_country_or_area_of_origin_destination_to_origin <chr>,
#   location_code_of_origin <dbl>, stock_1990_destination_to_origin <dbl>, …
…
